…
### Count the number of cancellation per item


```r
cancelled <- sales %>%
    filter(Status == "Canceled") %>%
    group_by(Item.Code) %>%
    summarise(n_cancelled = sum(Quantity)) %>%
    arrange(desc(n_cancelled))
```


```
## # A tibble: 73 x 3
##    Item.Code n_cancelled    id
##        <int>       <int> <int>
##  1    111931        6315     1
##  2  10135358        2646     2
##  3   1040765        1865     3
##  4  10098739        1858     4
##  5  10135771        1648     5
##  6  10133703        1141     6
##  7   1041106        1091     7
##  8   1040774         899     8
##  9   1041105         833     9
## 10  10106230         636    10
## # ... with 63 more rows
```
…
